{
  "__type__": "cc.SpriteFrame",
  "content": {
    "name": "item_4",
    "texture": "beab5f47-1cf8-4504-81ec-932f009e1126",
    "atlas": "",
    "rect": [
      17,
      18,
      30,
      29
    ],
    "offset": [
      0,
      -0.5
    ],
    "originalSize": [
      64,
      64
    ],
    "capInsets": [
      0,
      0,
      0,
      0
    ]
  }
}