{
  "__type__": "cc.AnimationClip",
  "_name": "chooser",
  "_objFlags": 0,
  "_native": "",
  "_duration": 0.1,
  "sample": 30,
  "speed": 0.1,
  "wrapMode": 2,
  "curveData": {
    "props": {
      "scale": [
        {
          "frame": 0,
          "value": {
            "__type__": "cc.Vec2",
            "x": 1,
            "y": 1
          }
        },
        {
          "frame": 0.03333333333333333,
          "value": {
            "__type__": "cc.Vec2",
            "x": 0.96,
            "y": 0.96
          }
        },
        {
          "frame": 0.06666666666666667,
          "value": {
            "__type__": "cc.Vec2",
            "x": 1.07,
            "y": 1.07
          }
        },
        {
          "frame": 0.1,
          "value": {
            "__type__": "cc.Vec2",
            "x": 1.013,
            "y": 1.013
          }
        }
      ]
    }
  },
  "events": []
}