{
  "__type__": "cc.SpriteFrame",
  "content": {
    "name": "backgroundColorForest",
    "texture": "9ccb1e2b-e626-458b-9738-652bbe5e3003",
    "atlas": "",
    "rect": [
      0,
      0,
      1024,
      1024
    ],
    "offset": [
      0,
      0
    ],
    "originalSize": [
      1024,
      1024
    ],
    "capInsets": [
      0,
      0,
      0,
      0
    ]
  }
}